{
    "local": "http://localhost/gmf/mdr-api/public/index.php",
    "server": "https://dev.gmf-aeroasia.co.id/app_mdr/public/index.php",
  	"name": "Dokumentasi API PHP MDR",
  	"version": "0.1.0",
  	"description": "API PHP yang berfungsi untuk membantu komunikasi data Aplikasi MDR Mobile ke Aplikasi SAP dan Aplikasi Core MDR",
  	"title": "API PHP MDR",
  	"url" : "https://dev.gmf-aeroasia.co.id/app_mdr/public/index.php",
  	"sampleUrl": "https://dev.gmf-aeroasia.co.id/app_mdr/public/index.php",
	"template": {
		"withCompare": true,
		"withGenerator": true
	}
}